required/myProject1/myProject1.sim/sim_1/behav/xsim/simulate.log
Time resolution is 1 ps
Configuration completed                      0 ns
1. Accuracy: 100.000000, Detected number: 7, Expected: 0007
2. Accuracy: 100.000000, Detected number: 2, Expected: 0002
3. Accuracy: 100.000000, Detected number: 1, Expected: 0001
4. Accuracy: 100.000000, Detected number: 0, Expected: 0000
5. Accuracy: 100.000000, Detected number: 4, Expected: 0004
6. Accuracy: 100.000000, Detected number: 1, Expected: 0001
7. Accuracy: 100.000000, Detected number: 4, Expected: 0004
8. Accuracy: 100.000000, Detected number: 9, Expected: 0009
9. Accuracy: 88.888889, Detected number: 6, Expected: 0005
10. Accuracy: 90.000000, Detected number: 9, Expected: 0009
11. Accuracy: 90.909091, Detected number: 0, Expected: 0000
12. Accuracy: 91.666667, Detected number: 6, Expected: 0006
13. Accuracy: 92.307692, Detected number: 9, Expected: 0009
14. Accuracy: 92.857143, Detected number: 0, Expected: 0000
15. Accuracy: 93.333333, Detected number: 1, Expected: 0001
16. Accuracy: 93.750000, Detected number: 5, Expected: 0005
17. Accuracy: 94.117647, Detected number: 9, Expected: 0009
18. Accuracy: 94.444444, Detected number: 7, Expected: 0007
19. Accuracy: 89.473684, Detected number: 8, Expected: 0003
20. Accuracy: 90.000000, Detected number: 4, Expected: 0004
21. Accuracy: 90.476190, Detected number: 9, Expected: 0009
22. Accuracy: 90.909091, Detected number: 6, Expected: 0006
23. Accuracy: 91.304348, Detected number: 6, Expected: 0006
24. Accuracy: 91.666667, Detected number: 5, Expected: 0005
25. Accuracy: 92.000000, Detected number: 4, Expected: 0004
26. Accuracy: 92.307692, Detected number: 0, Expected: 0000
27. Accuracy: 92.592593, Detected number: 7, Expected: 0007
28. Accuracy: 92.857143, Detected number: 4, Expected: 0004
29. Accuracy: 93.103448, Detected number: 0, Expected: 0000
30. Accuracy: 93.333333, Detected number: 1, Expected: 0001
31. Accuracy: 93.548387, Detected number: 3, Expected: 0003
32. Accuracy: 93.750000, Detected number: 1, Expected: 0001
33. Accuracy: 93.939394, Detected number: 3, Expected: 0003
34. Accuracy: 94.117647, Detected number: 4, Expected: 0004
35. Accuracy: 94.285714, Detected number: 7, Expected: 0007
36. Accuracy: 94.444444, Detected number: 2, Expected: 0002
37. Accuracy: 94.594595, Detected number: 7, Expected: 0007
38. Accuracy: 94.736842, Detected number: 1, Expected: 0001
39. Accuracy: 94.871795, Detected number: 2, Expected: 0002
40. Accuracy: 95.000000, Detected number: 1, Expected: 0001
41. Accuracy: 95.121951, Detected number: 1, Expected: 0001
42. Accuracy: 95.238095, Detected number: 7, Expected: 0007
43. Accuracy: 95.348837, Detected number: 4, Expected: 0004
44. Accuracy: 95.454545, Detected number: 2, Expected: 0002
45. Accuracy: 95.555556, Detected number: 3, Expected: 0003
46. Accuracy: 95.652174, Detected number: 5, Expected: 0005
47. Accuracy: 95.744681, Detected number: 1, Expected: 0001
48. Accuracy: 95.833333, Detected number: 2, Expected: 0002
49. Accuracy: 95.918367, Detected number: 4, Expected: 0004
50. Accuracy: 96.000000, Detected number: 4, Expected: 0004
51. Accuracy: 96.078431, Detected number: 6, Expected: 0006
52. Accuracy: 96.153846, Detected number: 3, Expected: 0003
53. Accuracy: 96.226415, Detected number: 5, Expected: 0005
54. Accuracy: 96.296296, Detected number: 5, Expected: 0005
55. Accuracy: 96.363636, Detected number: 6, Expected: 0006
56. Accuracy: 96.428571, Detected number: 0, Expected: 0000
57. Accuracy: 96.491228, Detected number: 4, Expected: 0004
58. Accuracy: 96.551724, Detected number: 1, Expected: 0001
59. Accuracy: 96.610169, Detected number: 9, Expected: 0009
60. Accuracy: 96.666667, Detected number: 5, Expected: 0005
61. Accuracy: 96.721311, Detected number: 7, Expected: 0007
62. Accuracy: 96.774194, Detected number: 8, Expected: 0008
63. Accuracy: 96.825397, Detected number: 9, Expected: 0009
64. Accuracy: 96.875000, Detected number: 3, Expected: 0003
65. Accuracy: 96.923077, Detected number: 7, Expected: 0007
66. Accuracy: 96.969697, Detected number: 4, Expected: 0004
67. Accuracy: 97.014925, Detected number: 6, Expected: 0006
68. Accuracy: 97.058824, Detected number: 4, Expected: 0004
69. Accuracy: 97.101449, Detected number: 3, Expected: 0003
70. Accuracy: 97.142857, Detected number: 0, Expected: 0000
71. Accuracy: 97.183099, Detected number: 7, Expected: 0007
72. Accuracy: 97.222222, Detected number: 0, Expected: 0000
73. Accuracy: 97.260274, Detected number: 2, Expected: 0002
74. Accuracy: 97.297297, Detected number: 9, Expected: 0009
75. Accuracy: 97.333333, Detected number: 1, Expected: 0001
76. Accuracy: 97.368421, Detected number: 7, Expected: 0007
77. Accuracy: 97.402597, Detected number: 3, Expected: 0003
78. Accuracy: 97.435897, Detected number: 2, Expected: 0002
79. Accuracy: 97.468354, Detected number: 9, Expected: 0009
80. Accuracy: 97.500000, Detected number: 7, Expected: 0007
81. Accuracy: 97.530864, Detected number: 7, Expected: 0007
82. Accuracy: 97.560976, Detected number: 6, Expected: 0006
83. Accuracy: 97.590361, Detected number: 2, Expected: 0002
84. Accuracy: 97.619048, Detected number: 7, Expected: 0007
85. Accuracy: 97.647059, Detected number: 8, Expected: 0008
86. Accuracy: 97.674419, Detected number: 4, Expected: 0004
87. Accuracy: 97.701149, Detected number: 7, Expected: 0007
88. Accuracy: 97.727273, Detected number: 3, Expected: 0003
89. Accuracy: 97.752809, Detected number: 6, Expected: 0006
90. Accuracy: 97.777778, Detected number: 1, Expected: 0001
91. Accuracy: 97.802198, Detected number: 3, Expected: 0003
92. Accuracy: 97.826087, Detected number: 6, Expected: 0006
93. Accuracy: 97.849462, Detected number: 9, Expected: 0009
94. Accuracy: 97.872340, Detected number: 3, Expected: 0003
95. Accuracy: 97.894737, Detected number: 1, Expected: 0001
96. Accuracy: 97.916667, Detected number: 4, Expected: 0004
97. Accuracy: 97.938144, Detected number: 1, Expected: 0001
98. Accuracy: 97.959184, Detected number: 7, Expected: 0007
99. Accuracy: 97.979798, Detected number: 6, Expected: 0006
100. Accuracy: 98.000000, Detected number: 9, Expected: 0009
Accuracy: 98.000000
$stop called at time : 900235 ns : File "C:/Users/HP/Documents/neuralNetwork-master/Tut-5/src/fpga/tb/top_sim.v" Line 358
