Step-8/myProject1/myProject1.sim/sim_1/behav/xsim/simulate.log
Vivado Simulator 2017.4
Time resolution is 1 ps
Configuration completed                      0 ns
1. Accuracy: 100.000000, Detected number: 7, Expected: 0007
2. Accuracy: 100.000000, Detected number: 2, Expected: 0002
3. Accuracy: 100.000000, Detected number: 1, Expected: 0001
4. Accuracy: 100.000000, Detected number: 0, Expected: 0000
5. Accuracy: 100.000000, Detected number: 4, Expected: 0004
6. Accuracy: 100.000000, Detected number: 1, Expected: 0001
7. Accuracy: 100.000000, Detected number: 4, Expected: 0004
8. Accuracy: 100.000000, Detected number: 9, Expected: 0009
9. Accuracy: 100.000000, Detected number: 5, Expected: 0005
10. Accuracy: 100.000000, Detected number: 9, Expected: 0009
11. Accuracy: 100.000000, Detected number: 0, Expected: 0000
12. Accuracy: 100.000000, Detected number: 6, Expected: 0006
13. Accuracy: 100.000000, Detected number: 9, Expected: 0009
14. Accuracy: 100.000000, Detected number: 0, Expected: 0000
15. Accuracy: 100.000000, Detected number: 1, Expected: 0001
16. Accuracy: 100.000000, Detected number: 5, Expected: 0005
17. Accuracy: 100.000000, Detected number: 9, Expected: 0009
18. Accuracy: 100.000000, Detected number: 7, Expected: 0007
19. Accuracy: 100.000000, Detected number: 3, Expected: 0003
20. Accuracy: 100.000000, Detected number: 4, Expected: 0004
21. Accuracy: 100.000000, Detected number: 9, Expected: 0009
22. Accuracy: 100.000000, Detected number: 6, Expected: 0006
23. Accuracy: 100.000000, Detected number: 6, Expected: 0006
24. Accuracy: 100.000000, Detected number: 5, Expected: 0005
25. Accuracy: 100.000000, Detected number: 4, Expected: 0004
26. Accuracy: 100.000000, Detected number: 0, Expected: 0000
27. Accuracy: 100.000000, Detected number: 7, Expected: 0007
28. Accuracy: 100.000000, Detected number: 4, Expected: 0004
29. Accuracy: 100.000000, Detected number: 0, Expected: 0000
30. Accuracy: 100.000000, Detected number: 1, Expected: 0001
31. Accuracy: 100.000000, Detected number: 3, Expected: 0003
32. Accuracy: 100.000000, Detected number: 1, Expected: 0001
33. Accuracy: 100.000000, Detected number: 3, Expected: 0003
34. Accuracy: 100.000000, Detected number: 4, Expected: 0004
35. Accuracy: 100.000000, Detected number: 7, Expected: 0007
36. Accuracy: 100.000000, Detected number: 2, Expected: 0002
37. Accuracy: 100.000000, Detected number: 7, Expected: 0007
38. Accuracy: 100.000000, Detected number: 1, Expected: 0001
39. Accuracy: 100.000000, Detected number: 2, Expected: 0002
40. Accuracy: 100.000000, Detected number: 1, Expected: 0001
41. Accuracy: 100.000000, Detected number: 1, Expected: 0001
42. Accuracy: 100.000000, Detected number: 7, Expected: 0007
43. Accuracy: 100.000000, Detected number: 4, Expected: 0004
44. Accuracy: 100.000000, Detected number: 2, Expected: 0002
45. Accuracy: 100.000000, Detected number: 3, Expected: 0003
46. Accuracy: 100.000000, Detected number: 5, Expected: 0005
47. Accuracy: 100.000000, Detected number: 1, Expected: 0001
48. Accuracy: 100.000000, Detected number: 2, Expected: 0002
49. Accuracy: 100.000000, Detected number: 4, Expected: 0004
50. Accuracy: 100.000000, Detected number: 4, Expected: 0004
51. Accuracy: 100.000000, Detected number: 6, Expected: 0006
52. Accuracy: 100.000000, Detected number: 3, Expected: 0003
53. Accuracy: 100.000000, Detected number: 5, Expected: 0005
54. Accuracy: 100.000000, Detected number: 5, Expected: 0005
55. Accuracy: 100.000000, Detected number: 6, Expected: 0006
56. Accuracy: 100.000000, Detected number: 0, Expected: 0000
57. Accuracy: 100.000000, Detected number: 4, Expected: 0004
58. Accuracy: 100.000000, Detected number: 1, Expected: 0001
59. Accuracy: 100.000000, Detected number: 9, Expected: 0009
60. Accuracy: 100.000000, Detected number: 5, Expected: 0005
61. Accuracy: 100.000000, Detected number: 7, Expected: 0007
62. Accuracy: 98.387097, Detected number: 2, Expected: 0008
63. Accuracy: 98.412698, Detected number: 9, Expected: 0009
64. Accuracy: 98.437500, Detected number: 3, Expected: 0003
65. Accuracy: 98.461538, Detected number: 7, Expected: 0007
66. Accuracy: 98.484848, Detected number: 4, Expected: 0004
67. Accuracy: 98.507463, Detected number: 6, Expected: 0006
68. Accuracy: 98.529412, Detected number: 4, Expected: 0004
69. Accuracy: 98.550725, Detected number: 3, Expected: 0003
70. Accuracy: 98.571429, Detected number: 0, Expected: 0000
71. Accuracy: 98.591549, Detected number: 7, Expected: 0007
72. Accuracy: 98.611111, Detected number: 0, Expected: 0000
73. Accuracy: 98.630137, Detected number: 2, Expected: 0002
74. Accuracy: 98.648649, Detected number: 9, Expected: 0009
75. Accuracy: 98.666667, Detected number: 1, Expected: 0001
76. Accuracy: 98.684211, Detected number: 7, Expected: 0007
77. Accuracy: 98.701299, Detected number: 3, Expected: 0003
78. Accuracy: 98.717949, Detected number: 2, Expected: 0002
79. Accuracy: 98.734177, Detected number: 9, Expected: 0009
80. Accuracy: 98.750000, Detected number: 7, Expected: 0007
81. Accuracy: 98.765432, Detected number: 7, Expected: 0007
82. Accuracy: 98.780488, Detected number: 6, Expected: 0006
83. Accuracy: 98.795181, Detected number: 2, Expected: 0002
84. Accuracy: 98.809524, Detected number: 7, Expected: 0007
85. Accuracy: 98.823529, Detected number: 8, Expected: 0008
86. Accuracy: 98.837209, Detected number: 4, Expected: 0004
87. Accuracy: 98.850575, Detected number: 7, Expected: 0007
88. Accuracy: 98.863636, Detected number: 3, Expected: 0003
89. Accuracy: 98.876404, Detected number: 6, Expected: 0006
90. Accuracy: 98.888889, Detected number: 1, Expected: 0001
91. Accuracy: 98.901099, Detected number: 3, Expected: 0003
92. Accuracy: 98.913043, Detected number: 6, Expected: 0006
93. Accuracy: 98.924731, Detected number: 9, Expected: 0009
94. Accuracy: 98.936170, Detected number: 3, Expected: 0003
95. Accuracy: 98.947368, Detected number: 1, Expected: 0001
96. Accuracy: 98.958333, Detected number: 4, Expected: 0004
97. Accuracy: 98.969072, Detected number: 1, Expected: 0001
98. Accuracy: 98.979592, Detected number: 7, Expected: 0007
99. Accuracy: 98.989899, Detected number: 6, Expected: 0006
100. Accuracy: 99.000000, Detected number: 9, Expected: 0009
Accuracy: 99.000000
